﻿MallName,EmailId,PhoneNumber,Place,YearEstablished,WebsiteURL
Walmart,walmart@gmail.com,4537654290,Maryville,1970,http://www.walmart.com/
JCPenney,jcpenney@gmail.com,7653901954,Denver,1985,http://www.jcpenney.com/
Rue 21,rue 21@gmail.com,2074370841,Orlando,1976,http://www.rue21.com/
Aeropostale,aeropostale@gmail.com,5024860435,Maryville,1973,http://www.aeropostale.com/
Hollister,hollister@gmail.com,6693450254,Maryville,2000,http://www.hollister.com/
Gap,gap@gmail.com,9458720467,Sanfrancisco,1969,http://www.gap.com/
H & M,H&M@gmail.com,8437601635,Maryville,1981,http://www.H&M.com/